<mxfile host="app.diagrams.net" modified="2022-11-22T17:45:32.824Z" agent="5.0 (Windows NT 10.0; Win64; x64) AppleWebKit/537.36 (KHTML, like Gecko) Chrome/106.0.0.0 Safari/537.36" etag="imvRZDp6n6zlYWW-sqfS" version="20.5.3" type="gitlab">
  <diagram id="bc2yQo3yOykpWFOEvDps" name="Page-1">
    <mxGraphModel dx="3834" dy="1185" grid="1" gridSize="10" guides="1" tooltips="1" connect="1" arrows="1" fold="1" page="1" pageScale="1" pageWidth="850" pageHeight="1100" math="0" shadow="0">
      <root>
        <mxCell id="0" />
        <mxCell id="1" parent="0" />
        <mxCell id="GIzAJ8voG6iG_979vjGk-22" value="" style="rounded=1;whiteSpace=wrap;html=1;" parent="1" vertex="1">
          <mxGeometry x="-810" y="5660" width="1180" height="570" as="geometry" />
        </mxCell>
        <mxCell id="GIzAJ8voG6iG_979vjGk-43" style="edgeStyle=orthogonalEdgeStyle;rounded=0;orthogonalLoop=1;jettySize=auto;html=1;fontColor=#999900;" parent="1" source="GIzAJ8voG6iG_979vjGk-40" edge="1">
          <mxGeometry relative="1" as="geometry">
            <mxPoint y="5860" as="targetPoint" />
          </mxGeometry>
        </mxCell>
        <mxCell id="GIzAJ8voG6iG_979vjGk-42" style="edgeStyle=orthogonalEdgeStyle;rounded=0;orthogonalLoop=1;jettySize=auto;html=1;fontColor=#999900;entryX=-0.008;entryY=0.313;entryDx=0;entryDy=0;entryPerimeter=0;" parent="1" source="GIzAJ8voG6iG_979vjGk-40" target="GIzAJ8voG6iG_979vjGk-19" edge="1">
          <mxGeometry relative="1" as="geometry" />
        </mxCell>
        <mxCell id="8zmKA1OA8kDZ-P2FFn2A-40" value="" style="rounded=1;whiteSpace=wrap;html=1;fillColor=#e1d5e7;strokeColor=#9673a6;" parent="1" vertex="1">
          <mxGeometry x="-770" y="4290" width="1090" height="330" as="geometry" />
        </mxCell>
        <mxCell id="8zmKA1OA8kDZ-P2FFn2A-36" value="" style="rounded=1;whiteSpace=wrap;html=1;fillColor=#ffe6cc;strokeColor=#d79b00;" parent="1" vertex="1">
          <mxGeometry x="-690" y="4630" width="1000" height="430" as="geometry" />
        </mxCell>
        <mxCell id="PDUS2weuFlZwvysentCn-5" value="Server One" style="rounded=1;whiteSpace=wrap;html=1;fillColor=#fff2cc;strokeColor=#d6b656;" parent="1" vertex="1">
          <mxGeometry x="-720" y="3320" width="290" height="210" as="geometry" />
        </mxCell>
        <mxCell id="lMOrvIdm-qygoKgNyEiz-40" value="" style="rounded=1;whiteSpace=wrap;html=1;fillColor=#fff2cc;strokeColor=#d6b656;" parent="1" vertex="1">
          <mxGeometry x="-150" y="1700" width="700" height="550" as="geometry" />
        </mxCell>
        <mxCell id="lMOrvIdm-qygoKgNyEiz-39" value="" style="rounded=1;whiteSpace=wrap;html=1;fillColor=#fff2cc;strokeColor=#d6b656;" parent="1" vertex="1">
          <mxGeometry x="730" y="1650" width="210" height="240" as="geometry" />
        </mxCell>
        <mxCell id="lMOrvIdm-qygoKgNyEiz-38" value="" style="rounded=1;whiteSpace=wrap;html=1;fillColor=#fff2cc;strokeColor=#d6b656;" parent="1" vertex="1">
          <mxGeometry x="990" y="1640" width="210" height="240" as="geometry" />
        </mxCell>
        <mxCell id="lMOrvIdm-qygoKgNyEiz-9" value="image docker" style="rounded=1;whiteSpace=wrap;html=1;" parent="1" vertex="1">
          <mxGeometry x="130" y="160" width="230" height="180" as="geometry" />
        </mxCell>
        <mxCell id="lMOrvIdm-qygoKgNyEiz-1" value="DEVS" style="shape=umlActor;verticalLabelPosition=bottom;verticalAlign=top;html=1;outlineConnect=0;" parent="1" vertex="1">
          <mxGeometry x="50" y="300" width="30" height="60" as="geometry" />
        </mxCell>
        <mxCell id="lMOrvIdm-qygoKgNyEiz-2" value="OPS" style="shape=umlActor;verticalLabelPosition=bottom;verticalAlign=top;html=1;outlineConnect=0;" parent="1" vertex="1">
          <mxGeometry x="570" y="310" width="30" height="60" as="geometry" />
        </mxCell>
        <mxCell id="lMOrvIdm-qygoKgNyEiz-3" value="machine" style="rounded=1;whiteSpace=wrap;html=1;" parent="1" vertex="1">
          <mxGeometry x="700" y="390" width="270" height="210" as="geometry" />
        </mxCell>
        <mxCell id="lMOrvIdm-qygoKgNyEiz-4" value="site reactjs 16" style="rhombus;whiteSpace=wrap;html=1;fillColor=#ffe6cc;strokeColor=#d79b00;" parent="1" vertex="1">
          <mxGeometry x="740" y="400" width="80" height="80" as="geometry" />
        </mxCell>
        <mxCell id="lMOrvIdm-qygoKgNyEiz-5" value="site reactjs 16" style="rhombus;whiteSpace=wrap;html=1;fillColor=#ffe6cc;strokeColor=#d79b00;" parent="1" vertex="1">
          <mxGeometry x="870" y="400" width="80" height="80" as="geometry" />
        </mxCell>
        <mxCell id="lMOrvIdm-qygoKgNyEiz-6" value="reactjs 16" style="shape=process;whiteSpace=wrap;html=1;backgroundOutline=1;fillColor=#ffe6cc;strokeColor=#d79b00;" parent="1" vertex="1">
          <mxGeometry x="720" y="520" width="230" height="60" as="geometry" />
        </mxCell>
        <mxCell id="lMOrvIdm-qygoKgNyEiz-7" value="" style="endArrow=none;html=1;rounded=0;" parent="1" edge="1">
          <mxGeometry width="50" height="50" relative="1" as="geometry">
            <mxPoint x="400" y="560" as="sourcePoint" />
            <mxPoint x="400" y="120" as="targetPoint" />
          </mxGeometry>
        </mxCell>
        <mxCell id="lMOrvIdm-qygoKgNyEiz-8" value="site reactjs 19" style="rhombus;whiteSpace=wrap;html=1;fillColor=#dae8fc;strokeColor=#6c8ebf;" parent="1" vertex="1">
          <mxGeometry x="140" y="170" width="90" height="70" as="geometry" />
        </mxCell>
        <mxCell id="lMOrvIdm-qygoKgNyEiz-10" value="reactjs 19" style="shape=process;whiteSpace=wrap;html=1;backgroundOutline=1;fillColor=#dae8fc;strokeColor=#6c8ebf;" parent="1" vertex="1">
          <mxGeometry x="140" y="270" width="210" height="60" as="geometry" />
        </mxCell>
        <mxCell id="lMOrvIdm-qygoKgNyEiz-11" value="MAC" style="rounded=1;whiteSpace=wrap;html=1;" parent="1" vertex="1">
          <mxGeometry x="280" y="910" width="680" height="60" as="geometry" />
        </mxCell>
        <mxCell id="lMOrvIdm-qygoKgNyEiz-12" value="virtulbox | vmware" style="rounded=1;whiteSpace=wrap;html=1;" parent="1" vertex="1">
          <mxGeometry x="280" y="840" width="680" height="60" as="geometry" />
        </mxCell>
        <mxCell id="lMOrvIdm-qygoKgNyEiz-13" value="linux !G RAM" style="rounded=1;whiteSpace=wrap;html=1;" parent="1" vertex="1">
          <mxGeometry x="280" y="760" width="350" height="60" as="geometry" />
        </mxCell>
        <mxCell id="lMOrvIdm-qygoKgNyEiz-14" value="windows 2GB Ram" style="rounded=1;whiteSpace=wrap;html=1;" parent="1" vertex="1">
          <mxGeometry x="650" y="760" width="310" height="60" as="geometry" />
        </mxCell>
        <mxCell id="lMOrvIdm-qygoKgNyEiz-16" value="MAC" style="rounded=1;whiteSpace=wrap;html=1;fillColor=#e1d5e7;strokeColor=#9673a6;" parent="1" vertex="1">
          <mxGeometry x="270" y="1250" width="730" height="60" as="geometry" />
        </mxCell>
        <mxCell id="lMOrvIdm-qygoKgNyEiz-17" value="Docker" style="shape=process;whiteSpace=wrap;html=1;backgroundOutline=1;fillColor=#dae8fc;strokeColor=#6c8ebf;" parent="1" vertex="1">
          <mxGeometry x="280" y="1210" width="710" height="60" as="geometry" />
        </mxCell>
        <mxCell id="lMOrvIdm-qygoKgNyEiz-18" value="reactjs 19" style="shape=process;whiteSpace=wrap;html=1;backgroundOutline=1;" parent="1" vertex="1">
          <mxGeometry x="370" y="1170" width="120" height="60" as="geometry" />
        </mxCell>
        <mxCell id="lMOrvIdm-qygoKgNyEiz-19" value="40 GO" style="text;html=1;align=center;verticalAlign=middle;resizable=0;points=[];autosize=1;strokeColor=none;fillColor=none;" parent="1" vertex="1">
          <mxGeometry x="430" y="705" width="60" height="30" as="geometry" />
        </mxCell>
        <mxCell id="lMOrvIdm-qygoKgNyEiz-21" value="reactjs 16" style="shape=process;whiteSpace=wrap;html=1;backgroundOutline=1;" parent="1" vertex="1">
          <mxGeometry x="540" y="1170" width="120" height="60" as="geometry" />
        </mxCell>
        <mxCell id="lMOrvIdm-qygoKgNyEiz-22" value="MongoDB" style="shape=cylinder3;whiteSpace=wrap;html=1;boundedLbl=1;backgroundOutline=1;size=15;" parent="1" vertex="1">
          <mxGeometry x="1030" y="1720" width="60" height="80" as="geometry" />
        </mxCell>
        <mxCell id="lMOrvIdm-qygoKgNyEiz-23" value="API faite en GO" style="rhombus;whiteSpace=wrap;html=1;" parent="1" vertex="1">
          <mxGeometry x="750" y="1680" width="160" height="160" as="geometry" />
        </mxCell>
        <mxCell id="lMOrvIdm-qygoKgNyEiz-24" value="" style="endArrow=classic;startArrow=classic;html=1;rounded=0;exitX=1;exitY=0.5;exitDx=0;exitDy=0;" parent="1" source="lMOrvIdm-qygoKgNyEiz-23" target="lMOrvIdm-qygoKgNyEiz-22" edge="1">
          <mxGeometry width="50" height="50" relative="1" as="geometry">
            <mxPoint x="530" y="2010" as="sourcePoint" />
            <mxPoint x="580" y="1960" as="targetPoint" />
          </mxGeometry>
        </mxCell>
        <mxCell id="lMOrvIdm-qygoKgNyEiz-33" style="edgeStyle=orthogonalEdgeStyle;rounded=0;orthogonalLoop=1;jettySize=auto;html=1;entryX=0.044;entryY=0.538;entryDx=0;entryDy=0;entryPerimeter=0;fillColor=#d5e8d4;strokeColor=#82b366;" parent="1" source="lMOrvIdm-qygoKgNyEiz-25" target="lMOrvIdm-qygoKgNyEiz-23" edge="1">
          <mxGeometry relative="1" as="geometry" />
        </mxCell>
        <mxCell id="lMOrvIdm-qygoKgNyEiz-25" value="" style="rounded=1;whiteSpace=wrap;html=1;fillColor=#dae8fc;strokeColor=#6c8ebf;" parent="1" vertex="1">
          <mxGeometry x="-130" y="1770" width="630" height="430" as="geometry" />
        </mxCell>
        <mxCell id="lMOrvIdm-qygoKgNyEiz-26" value="ReactJS" style="text;html=1;align=center;verticalAlign=middle;resizable=0;points=[];autosize=1;strokeColor=#6c8ebf;fillColor=#dae8fc;" parent="1" vertex="1">
          <mxGeometry x="-45" y="1745" width="70" height="30" as="geometry" />
        </mxCell>
        <mxCell id="lMOrvIdm-qygoKgNyEiz-27" value="Redux (base de donnes qui disparait appres)" style="rounded=1;whiteSpace=wrap;html=1;fillColor=#d5e8d4;strokeColor=#82b366;" parent="1" vertex="1">
          <mxGeometry x="-110" y="2110" width="590" height="50" as="geometry" />
        </mxCell>
        <mxCell id="lMOrvIdm-qygoKgNyEiz-34" value="1 - appelle" style="text;html=1;align=center;verticalAlign=middle;resizable=0;points=[];autosize=1;strokeColor=none;fillColor=none;" parent="1" vertex="1">
          <mxGeometry x="620" y="1715" width="80" height="30" as="geometry" />
        </mxCell>
        <mxCell id="lMOrvIdm-qygoKgNyEiz-35" value="State:&amp;nbsp;&amp;nbsp;" style="rounded=1;whiteSpace=wrap;html=1;" parent="1" vertex="1">
          <mxGeometry x="-80" y="1980" width="210" height="140" as="geometry" />
        </mxCell>
        <mxCell id="lMOrvIdm-qygoKgNyEiz-28" value="Liste passager&amp;nbsp; pour un chauffeur" style="text;html=1;align=center;verticalAlign=middle;resizable=0;points=[];autosize=1;strokeColor=#d79b00;fillColor=#ffe6cc;" parent="1" vertex="1">
          <mxGeometry x="-75" y="2070" width="200" height="30" as="geometry" />
        </mxCell>
        <mxCell id="lMOrvIdm-qygoKgNyEiz-36" value="Interface tableau des passager" style="rounded=1;whiteSpace=wrap;html=1;" parent="1" vertex="1">
          <mxGeometry x="-45" y="1800" width="120" height="60" as="geometry" />
        </mxCell>
        <mxCell id="lMOrvIdm-qygoKgNyEiz-37" value="" style="shape=flexArrow;endArrow=classic;startArrow=classic;html=1;rounded=0;exitX=0.443;exitY=0;exitDx=0;exitDy=0;exitPerimeter=0;fillColor=#e1d5e7;strokeColor=#9673a6;" parent="1" source="lMOrvIdm-qygoKgNyEiz-35" target="lMOrvIdm-qygoKgNyEiz-36" edge="1">
          <mxGeometry width="100" height="100" relative="1" as="geometry">
            <mxPoint x="500" y="2030" as="sourcePoint" />
            <mxPoint x="600" y="1930" as="targetPoint" />
          </mxGeometry>
        </mxCell>
        <mxCell id="lMOrvIdm-qygoKgNyEiz-49" style="edgeStyle=orthogonalEdgeStyle;rounded=0;orthogonalLoop=1;jettySize=auto;html=1;" parent="1" source="lMOrvIdm-qygoKgNyEiz-46" target="lMOrvIdm-qygoKgNyEiz-48" edge="1">
          <mxGeometry relative="1" as="geometry" />
        </mxCell>
        <mxCell id="lMOrvIdm-qygoKgNyEiz-46" value="appelle" style="shape=cube;whiteSpace=wrap;html=1;boundedLbl=1;backgroundOutline=1;darkOpacity=0.05;darkOpacity2=0.1;" parent="1" vertex="1">
          <mxGeometry x="580" y="2060" width="120" height="80" as="geometry" />
        </mxCell>
        <mxCell id="lMOrvIdm-qygoKgNyEiz-50" style="edgeStyle=orthogonalEdgeStyle;rounded=0;orthogonalLoop=1;jettySize=auto;html=1;entryX=0;entryY=0.5;entryDx=0;entryDy=0;" parent="1" source="lMOrvIdm-qygoKgNyEiz-47" target="lMOrvIdm-qygoKgNyEiz-48" edge="1">
          <mxGeometry relative="1" as="geometry" />
        </mxCell>
        <mxCell id="lMOrvIdm-qygoKgNyEiz-47" value="appelle" style="shape=cube;whiteSpace=wrap;html=1;boundedLbl=1;backgroundOutline=1;darkOpacity=0.05;darkOpacity2=0.1;" parent="1" vertex="1">
          <mxGeometry x="590" y="2210" width="120" height="80" as="geometry" />
        </mxCell>
        <mxCell id="lMOrvIdm-qygoKgNyEiz-51" style="edgeStyle=orthogonalEdgeStyle;rounded=0;orthogonalLoop=1;jettySize=auto;html=1;entryX=0.5;entryY=1;entryDx=0;entryDy=0;" parent="1" source="lMOrvIdm-qygoKgNyEiz-48" target="lMOrvIdm-qygoKgNyEiz-39" edge="1">
          <mxGeometry relative="1" as="geometry">
            <Array as="points">
              <mxPoint x="940" y="2155" />
              <mxPoint x="940" y="1995" />
              <mxPoint x="835" y="1995" />
            </Array>
          </mxGeometry>
        </mxCell>
        <mxCell id="lMOrvIdm-qygoKgNyEiz-48" value="1 seul appelle" style="triangle;whiteSpace=wrap;html=1;" parent="1" vertex="1">
          <mxGeometry x="780" y="2100" width="120" height="110" as="geometry" />
        </mxCell>
        <mxCell id="lMOrvIdm-qygoKgNyEiz-52" value="Redux" style="shape=process;whiteSpace=wrap;html=1;backgroundOutline=1;" parent="1" vertex="1">
          <mxGeometry x="-80" y="2990" width="1070" height="60" as="geometry" />
        </mxCell>
        <mxCell id="lMOrvIdm-qygoKgNyEiz-53" value="composant 1" style="rounded=1;whiteSpace=wrap;html=1;" parent="1" vertex="1">
          <mxGeometry x="-45" y="2650" width="175" height="160" as="geometry" />
        </mxCell>
        <mxCell id="lMOrvIdm-qygoKgNyEiz-54" value="composant 2" style="rounded=1;whiteSpace=wrap;html=1;" parent="1" vertex="1">
          <mxGeometry x="565" y="2630" width="175" height="160" as="geometry" />
        </mxCell>
        <mxCell id="lMOrvIdm-qygoKgNyEiz-55" value="api 1" style="rhombus;whiteSpace=wrap;html=1;" parent="1" vertex="1">
          <mxGeometry x="-5" y="2410" width="80" height="80" as="geometry" />
        </mxCell>
        <mxCell id="lMOrvIdm-qygoKgNyEiz-56" value="" style="endArrow=classic;startArrow=classic;html=1;rounded=0;exitX=0.463;exitY=-0.019;exitDx=0;exitDy=0;exitPerimeter=0;entryX=0.5;entryY=1;entryDx=0;entryDy=0;" parent="1" source="lMOrvIdm-qygoKgNyEiz-53" target="lMOrvIdm-qygoKgNyEiz-55" edge="1">
          <mxGeometry width="50" height="50" relative="1" as="geometry">
            <mxPoint x="310" y="2800" as="sourcePoint" />
            <mxPoint x="360" y="2750" as="targetPoint" />
          </mxGeometry>
        </mxCell>
        <mxCell id="lMOrvIdm-qygoKgNyEiz-57" value="useState()&lt;br&gt;&lt;br&gt;useDispatch()" style="text;html=1;align=center;verticalAlign=middle;resizable=0;points=[];autosize=1;strokeColor=none;fillColor=none;" parent="1" vertex="1">
          <mxGeometry x="-50" y="2735" width="100" height="60" as="geometry" />
        </mxCell>
        <mxCell id="lMOrvIdm-qygoKgNyEiz-58" value="donne 1" style="shape=cylinder3;whiteSpace=wrap;html=1;boundedLbl=1;backgroundOutline=1;size=15;fillColor=#d5e8d4;strokeColor=#82b366;" parent="1" vertex="1">
          <mxGeometry x="60" y="2750" width="50" height="50" as="geometry" />
        </mxCell>
        <mxCell id="lMOrvIdm-qygoKgNyEiz-60" value="" style="shape=flexArrow;endArrow=classic;startArrow=classic;html=1;rounded=0;exitX=0.349;exitY=0.033;exitDx=0;exitDy=0;exitPerimeter=0;entryX=0.966;entryY=0.956;entryDx=0;entryDy=0;entryPerimeter=0;" parent="1" source="lMOrvIdm-qygoKgNyEiz-52" target="lMOrvIdm-qygoKgNyEiz-53" edge="1">
          <mxGeometry width="100" height="100" relative="1" as="geometry">
            <mxPoint x="280" y="2810" as="sourcePoint" />
            <mxPoint x="380" y="2710" as="targetPoint" />
          </mxGeometry>
        </mxCell>
        <mxCell id="lMOrvIdm-qygoKgNyEiz-61" value="" style="shape=flexArrow;endArrow=classic;startArrow=classic;html=1;rounded=0;exitX=0.491;exitY=0;exitDx=0;exitDy=0;exitPerimeter=0;entryX=0.25;entryY=1;entryDx=0;entryDy=0;" parent="1" source="lMOrvIdm-qygoKgNyEiz-52" target="lMOrvIdm-qygoKgNyEiz-54" edge="1">
          <mxGeometry width="100" height="100" relative="1" as="geometry">
            <mxPoint x="303.42999999999984" y="3001.98" as="sourcePoint" />
            <mxPoint x="134.05000000000018" y="2812.96" as="targetPoint" />
          </mxGeometry>
        </mxCell>
        <mxCell id="lMOrvIdm-qygoKgNyEiz-62" value="donne 1" style="shape=cylinder3;whiteSpace=wrap;html=1;boundedLbl=1;backgroundOutline=1;size=15;fillColor=#d5e8d4;strokeColor=#82b366;" parent="1" vertex="1">
          <mxGeometry x="330" y="2995" width="50" height="50" as="geometry" />
        </mxCell>
        <mxCell id="lMOrvIdm-qygoKgNyEiz-64" style="edgeStyle=orthogonalEdgeStyle;rounded=0;orthogonalLoop=1;jettySize=auto;html=1;" parent="1" source="lMOrvIdm-qygoKgNyEiz-63" target="lMOrvIdm-qygoKgNyEiz-62" edge="1">
          <mxGeometry relative="1" as="geometry" />
        </mxCell>
        <mxCell id="lMOrvIdm-qygoKgNyEiz-63" value="useSelector" style="text;html=1;strokeColor=#82b366;fillColor=#d5e8d4;align=center;verticalAlign=middle;whiteSpace=wrap;rounded=0;" parent="1" vertex="1">
          <mxGeometry x="610" y="2735" width="60" height="30" as="geometry" />
        </mxCell>
        <mxCell id="PDUS2weuFlZwvysentCn-1" value="puppet-agent" style="shape=cube;whiteSpace=wrap;html=1;boundedLbl=1;backgroundOutline=1;darkOpacity=0.05;darkOpacity2=0.1;fillColor=#ffe6cc;strokeColor=#d79b00;" parent="1" vertex="1">
          <mxGeometry x="-680" y="3440" width="120" height="80" as="geometry" />
        </mxCell>
        <mxCell id="PDUS2weuFlZwvysentCn-19" style="edgeStyle=orthogonalEdgeStyle;rounded=0;orthogonalLoop=1;jettySize=auto;html=1;entryX=0;entryY=0.75;entryDx=0;entryDy=0;" parent="1" source="PDUS2weuFlZwvysentCn-6" target="PDUS2weuFlZwvysentCn-12" edge="1">
          <mxGeometry relative="1" as="geometry" />
        </mxCell>
        <mxCell id="PDUS2weuFlZwvysentCn-6" value="Server Two" style="rounded=1;whiteSpace=wrap;html=1;fillColor=#fff2cc;strokeColor=#d6b656;" parent="1" vertex="1">
          <mxGeometry x="-715" y="3630" width="290" height="210" as="geometry" />
        </mxCell>
        <mxCell id="PDUS2weuFlZwvysentCn-7" value="puppet-agent" style="shape=cube;whiteSpace=wrap;html=1;boundedLbl=1;backgroundOutline=1;darkOpacity=0.05;darkOpacity2=0.1;fillColor=#ffe6cc;strokeColor=#d79b00;" parent="1" vertex="1">
          <mxGeometry x="-675" y="3750" width="120" height="80" as="geometry" />
        </mxCell>
        <mxCell id="PDUS2weuFlZwvysentCn-18" style="edgeStyle=orthogonalEdgeStyle;rounded=0;orthogonalLoop=1;jettySize=auto;html=1;entryX=1;entryY=0.75;entryDx=0;entryDy=0;" parent="1" source="PDUS2weuFlZwvysentCn-8" target="PDUS2weuFlZwvysentCn-12" edge="1">
          <mxGeometry relative="1" as="geometry">
            <Array as="points">
              <mxPoint x="-10" y="3700" />
            </Array>
          </mxGeometry>
        </mxCell>
        <mxCell id="PDUS2weuFlZwvysentCn-8" value="Server Three" style="rounded=1;whiteSpace=wrap;html=1;fillColor=#fff2cc;strokeColor=#d6b656;" parent="1" vertex="1">
          <mxGeometry x="100" y="3630" width="290" height="210" as="geometry" />
        </mxCell>
        <mxCell id="PDUS2weuFlZwvysentCn-9" value="puppet-agent" style="shape=cube;whiteSpace=wrap;html=1;boundedLbl=1;backgroundOutline=1;darkOpacity=0.05;darkOpacity2=0.1;fillColor=#ffe6cc;strokeColor=#d79b00;" parent="1" vertex="1">
          <mxGeometry x="140" y="3750" width="120" height="80" as="geometry" />
        </mxCell>
        <mxCell id="PDUS2weuFlZwvysentCn-20" style="edgeStyle=orthogonalEdgeStyle;rounded=0;orthogonalLoop=1;jettySize=auto;html=1;entryX=1;entryY=0.25;entryDx=0;entryDy=0;" parent="1" source="PDUS2weuFlZwvysentCn-10" target="PDUS2weuFlZwvysentCn-12" edge="1">
          <mxGeometry relative="1" as="geometry" />
        </mxCell>
        <mxCell id="PDUS2weuFlZwvysentCn-10" value="Server Four" style="rounded=1;whiteSpace=wrap;html=1;fillColor=#fff2cc;strokeColor=#d6b656;" parent="1" vertex="1">
          <mxGeometry x="90" y="3320" width="290" height="210" as="geometry" />
        </mxCell>
        <mxCell id="PDUS2weuFlZwvysentCn-11" value="puppet-agent" style="shape=cube;whiteSpace=wrap;html=1;boundedLbl=1;backgroundOutline=1;darkOpacity=0.05;darkOpacity2=0.1;fillColor=#ffe6cc;strokeColor=#d79b00;" parent="1" vertex="1">
          <mxGeometry x="130" y="3440" width="120" height="80" as="geometry" />
        </mxCell>
        <mxCell id="PDUS2weuFlZwvysentCn-12" value="Server Master" style="rounded=1;whiteSpace=wrap;html=1;fillColor=#dae8fc;strokeColor=#6c8ebf;" parent="1" vertex="1">
          <mxGeometry x="-320" y="3480" width="310" height="220" as="geometry" />
        </mxCell>
        <mxCell id="PDUS2weuFlZwvysentCn-13" value="puppetserver" style="shape=cube;whiteSpace=wrap;html=1;boundedLbl=1;backgroundOutline=1;darkOpacity=0.05;darkOpacity2=0.1;fillColor=#f8cecc;strokeColor=#b85450;" parent="1" vertex="1">
          <mxGeometry x="-280" y="3610" width="120" height="80" as="geometry" />
        </mxCell>
        <mxCell id="PDUS2weuFlZwvysentCn-14" value="" style="endArrow=classic;html=1;rounded=0;exitX=1;exitY=0.25;exitDx=0;exitDy=0;entryX=0.019;entryY=0.045;entryDx=0;entryDy=0;entryPerimeter=0;" parent="1" source="PDUS2weuFlZwvysentCn-5" target="PDUS2weuFlZwvysentCn-12" edge="1">
          <mxGeometry width="50" height="50" relative="1" as="geometry">
            <mxPoint x="-170" y="3700" as="sourcePoint" />
            <mxPoint x="-120" y="3650" as="targetPoint" />
          </mxGeometry>
        </mxCell>
        <mxCell id="PDUS2weuFlZwvysentCn-15" value="Il y a une tache a executer ?" style="text;html=1;align=center;verticalAlign=middle;resizable=0;points=[];autosize=1;strokeColor=none;fillColor=none;" parent="1" vertex="1">
          <mxGeometry x="-370" y="3390" width="170" height="30" as="geometry" />
        </mxCell>
        <mxCell id="PDUS2weuFlZwvysentCn-16" value="Il y a une tache a executer ?" style="text;html=1;align=center;verticalAlign=middle;resizable=0;points=[];autosize=1;strokeColor=none;fillColor=none;" parent="1" vertex="1">
          <mxGeometry x="-410" y="3760" width="170" height="30" as="geometry" />
        </mxCell>
        <mxCell id="PDUS2weuFlZwvysentCn-17" value="Il y a une tache a executer ?" style="text;html=1;align=center;verticalAlign=middle;resizable=0;points=[];autosize=1;strokeColor=none;fillColor=none;" parent="1" vertex="1">
          <mxGeometry x="-70" y="3720" width="170" height="30" as="geometry" />
        </mxCell>
        <mxCell id="PDUS2weuFlZwvysentCn-21" value="Il y a une tache a executer ?" style="text;html=1;align=center;verticalAlign=middle;resizable=0;points=[];autosize=1;strokeColor=none;fillColor=none;" parent="1" vertex="1">
          <mxGeometry x="-85" y="3380" width="170" height="30" as="geometry" />
        </mxCell>
        <mxCell id="PDUS2weuFlZwvysentCn-22" value="Server Client" style="rounded=1;whiteSpace=wrap;html=1;fillColor=#fff2cc;strokeColor=#d6b656;" parent="1" vertex="1">
          <mxGeometry x="50" y="4010" width="290" height="210" as="geometry" />
        </mxCell>
        <mxCell id="PDUS2weuFlZwvysentCn-23" value="Il y a une tache a executer ?" style="text;html=1;align=center;verticalAlign=middle;resizable=0;points=[];autosize=1;strokeColor=none;fillColor=none;" parent="1" vertex="1">
          <mxGeometry x="680" y="3780" width="170" height="30" as="geometry" />
        </mxCell>
        <mxCell id="PDUS2weuFlZwvysentCn-24" value="Server Master" style="rounded=1;whiteSpace=wrap;html=1;fillColor=#dae8fc;strokeColor=#6c8ebf;" parent="1" vertex="1">
          <mxGeometry x="-710" y="4005" width="310" height="220" as="geometry" />
        </mxCell>
        <mxCell id="PDUS2weuFlZwvysentCn-25" value="" style="shape=cylinder3;whiteSpace=wrap;html=1;boundedLbl=1;backgroundOutline=1;size=15;rotation=90;fillColor=#e1d5e7;strokeColor=#9673a6;" parent="1" vertex="1">
          <mxGeometry x="-202.5" y="3897.5" width="60" height="415" as="geometry" />
        </mxCell>
        <mxCell id="PDUS2weuFlZwvysentCn-26" value="SSL" style="text;html=1;align=center;verticalAlign=middle;resizable=0;points=[];autosize=1;strokeColor=none;fillColor=none;" parent="1" vertex="1">
          <mxGeometry x="-210" y="4090" width="50" height="30" as="geometry" />
        </mxCell>
        <mxCell id="8zmKA1OA8kDZ-P2FFn2A-1" value="server-api" style="rhombus;whiteSpace=wrap;html=1;" parent="1" vertex="1">
          <mxGeometry x="-740" y="4430" width="80" height="80" as="geometry" />
        </mxCell>
        <mxCell id="8zmKA1OA8kDZ-P2FFn2A-2" value="" style="rounded=1;whiteSpace=wrap;html=1;fillColor=#f8cecc;strokeColor=#b85450;" parent="1" vertex="1">
          <mxGeometry x="-500" y="4440" width="740" height="60" as="geometry" />
        </mxCell>
        <mxCell id="8zmKA1OA8kDZ-P2FFn2A-3" value="Jenkins" style="text;html=1;align=center;verticalAlign=middle;resizable=0;points=[];autosize=1;strokeColor=#b85450;fillColor=#f8cecc;" parent="1" vertex="1">
          <mxGeometry x="-230" y="4410" width="60" height="30" as="geometry" />
        </mxCell>
        <mxCell id="8zmKA1OA8kDZ-P2FFn2A-17" style="edgeStyle=orthogonalEdgeStyle;rounded=0;orthogonalLoop=1;jettySize=auto;html=1;" parent="1" source="8zmKA1OA8kDZ-P2FFn2A-4" target="8zmKA1OA8kDZ-P2FFn2A-5" edge="1">
          <mxGeometry relative="1" as="geometry" />
        </mxCell>
        <mxCell id="8zmKA1OA8kDZ-P2FFn2A-4" value="1 - recuperer le code" style="rounded=1;whiteSpace=wrap;html=1;fillColor=#fff2cc;strokeColor=#d6b656;" parent="1" vertex="1">
          <mxGeometry x="-500" y="4530" width="120" height="60" as="geometry" />
        </mxCell>
        <mxCell id="8zmKA1OA8kDZ-P2FFn2A-18" style="edgeStyle=orthogonalEdgeStyle;rounded=0;orthogonalLoop=1;jettySize=auto;html=1;" parent="1" source="8zmKA1OA8kDZ-P2FFn2A-5" target="8zmKA1OA8kDZ-P2FFn2A-6" edge="1">
          <mxGeometry relative="1" as="geometry" />
        </mxCell>
        <mxCell id="8zmKA1OA8kDZ-P2FFn2A-5" value="2 - Builder l image" style="rounded=1;whiteSpace=wrap;html=1;fillColor=#fff2cc;strokeColor=#d6b656;" parent="1" vertex="1">
          <mxGeometry x="-340" y="4530" width="120" height="60" as="geometry" />
        </mxCell>
        <mxCell id="8zmKA1OA8kDZ-P2FFn2A-19" style="edgeStyle=orthogonalEdgeStyle;rounded=0;orthogonalLoop=1;jettySize=auto;html=1;" parent="1" source="8zmKA1OA8kDZ-P2FFn2A-6" target="8zmKA1OA8kDZ-P2FFn2A-7" edge="1">
          <mxGeometry relative="1" as="geometry" />
        </mxCell>
        <mxCell id="8zmKA1OA8kDZ-P2FFn2A-6" value="3 - Tagguer l image" style="rounded=1;whiteSpace=wrap;html=1;fillColor=#fff2cc;strokeColor=#d6b656;" parent="1" vertex="1">
          <mxGeometry x="-180" y="4530" width="120" height="60" as="geometry" />
        </mxCell>
        <mxCell id="8zmKA1OA8kDZ-P2FFn2A-20" style="edgeStyle=orthogonalEdgeStyle;rounded=0;orthogonalLoop=1;jettySize=auto;html=1;" parent="1" source="8zmKA1OA8kDZ-P2FFn2A-7" target="8zmKA1OA8kDZ-P2FFn2A-8" edge="1">
          <mxGeometry relative="1" as="geometry" />
        </mxCell>
        <mxCell id="8zmKA1OA8kDZ-P2FFn2A-7" value="4 - Push to docker hub" style="rounded=1;whiteSpace=wrap;html=1;fillColor=#fff2cc;strokeColor=#d6b656;" parent="1" vertex="1">
          <mxGeometry x="-30" y="4530" width="120" height="60" as="geometry" />
        </mxCell>
        <mxCell id="8zmKA1OA8kDZ-P2FFn2A-21" style="edgeStyle=orthogonalEdgeStyle;rounded=0;orthogonalLoop=1;jettySize=auto;html=1;entryX=0.5;entryY=0;entryDx=0;entryDy=0;" parent="1" source="8zmKA1OA8kDZ-P2FFn2A-8" target="8zmKA1OA8kDZ-P2FFn2A-10" edge="1">
          <mxGeometry relative="1" as="geometry">
            <Array as="points">
              <mxPoint x="200" y="4640" />
              <mxPoint x="-300" y="4640" />
            </Array>
          </mxGeometry>
        </mxCell>
        <mxCell id="8zmKA1OA8kDZ-P2FFn2A-8" value="5 - Deploy to swarm" style="rounded=1;whiteSpace=wrap;html=1;fillColor=#fff2cc;strokeColor=#d6b656;" parent="1" vertex="1">
          <mxGeometry x="120" y="4530" width="120" height="60" as="geometry" />
        </mxCell>
        <mxCell id="8zmKA1OA8kDZ-P2FFn2A-9" value="worker docker&lt;br&gt;1GB&amp;nbsp;" style="shape=process;whiteSpace=wrap;html=1;backgroundOutline=1;fillColor=#dae8fc;strokeColor=#6c8ebf;" parent="1" vertex="1">
          <mxGeometry x="-440" y="4770" width="120" height="60" as="geometry" />
        </mxCell>
        <mxCell id="8zmKA1OA8kDZ-P2FFn2A-15" style="edgeStyle=orthogonalEdgeStyle;rounded=0;orthogonalLoop=1;jettySize=auto;html=1;" parent="1" source="8zmKA1OA8kDZ-P2FFn2A-10" target="8zmKA1OA8kDZ-P2FFn2A-9" edge="1">
          <mxGeometry relative="1" as="geometry" />
        </mxCell>
        <mxCell id="8zmKA1OA8kDZ-P2FFn2A-16" style="edgeStyle=orthogonalEdgeStyle;rounded=0;orthogonalLoop=1;jettySize=auto;html=1;" parent="1" source="8zmKA1OA8kDZ-P2FFn2A-10" target="8zmKA1OA8kDZ-P2FFn2A-11" edge="1">
          <mxGeometry relative="1" as="geometry" />
        </mxCell>
        <mxCell id="8zmKA1OA8kDZ-P2FFn2A-30" style="edgeStyle=orthogonalEdgeStyle;rounded=0;orthogonalLoop=1;jettySize=auto;html=1;" parent="1" source="8zmKA1OA8kDZ-P2FFn2A-10" target="8zmKA1OA8kDZ-P2FFn2A-22" edge="1">
          <mxGeometry relative="1" as="geometry" />
        </mxCell>
        <mxCell id="8zmKA1OA8kDZ-P2FFn2A-10" value="Swarm master Master" style="shape=process;whiteSpace=wrap;html=1;backgroundOutline=1;fillColor=#dae8fc;strokeColor=#6c8ebf;" parent="1" vertex="1">
          <mxGeometry x="-360" y="4660" width="120" height="60" as="geometry" />
        </mxCell>
        <mxCell id="8zmKA1OA8kDZ-P2FFn2A-11" value="worker docker&lt;br&gt;1GB" style="shape=process;whiteSpace=wrap;html=1;backgroundOutline=1;fillColor=#dae8fc;strokeColor=#6c8ebf;" parent="1" vertex="1">
          <mxGeometry x="-250" y="4770" width="120" height="60" as="geometry" />
        </mxCell>
        <mxCell id="8zmKA1OA8kDZ-P2FFn2A-13" style="edgeStyle=orthogonalEdgeStyle;rounded=0;orthogonalLoop=1;jettySize=auto;html=1;entryX=0.5;entryY=1;entryDx=0;entryDy=0;" parent="1" source="8zmKA1OA8kDZ-P2FFn2A-12" target="8zmKA1OA8kDZ-P2FFn2A-11" edge="1">
          <mxGeometry relative="1" as="geometry" />
        </mxCell>
        <mxCell id="8zmKA1OA8kDZ-P2FFn2A-14" style="edgeStyle=orthogonalEdgeStyle;rounded=0;orthogonalLoop=1;jettySize=auto;html=1;" parent="1" source="8zmKA1OA8kDZ-P2FFn2A-12" target="8zmKA1OA8kDZ-P2FFn2A-9" edge="1">
          <mxGeometry relative="1" as="geometry" />
        </mxCell>
        <mxCell id="8zmKA1OA8kDZ-P2FFn2A-23" style="edgeStyle=orthogonalEdgeStyle;rounded=0;orthogonalLoop=1;jettySize=auto;html=1;entryX=0.5;entryY=1;entryDx=0;entryDy=0;" parent="1" source="8zmKA1OA8kDZ-P2FFn2A-12" target="8zmKA1OA8kDZ-P2FFn2A-22" edge="1">
          <mxGeometry relative="1" as="geometry" />
        </mxCell>
        <mxCell id="8zmKA1OA8kDZ-P2FFn2A-12" value="puppet master&lt;br&gt;4 GB Ram" style="ellipse;whiteSpace=wrap;html=1;aspect=fixed;fillColor=#fff2cc;strokeColor=#d6b656;" parent="1" vertex="1">
          <mxGeometry x="-550" y="4910" width="80" height="80" as="geometry" />
        </mxCell>
        <mxCell id="8zmKA1OA8kDZ-P2FFn2A-22" value="1-VM Vierge&amp;nbsp;&lt;br&gt;2 - configurer puppet agent&amp;nbsp;" style="shape=process;whiteSpace=wrap;html=1;backgroundOutline=1;" parent="1" vertex="1">
          <mxGeometry x="30" y="4770" width="120" height="60" as="geometry" />
        </mxCell>
        <mxCell id="8zmKA1OA8kDZ-P2FFn2A-24" value="1 -instalation de docker&amp;nbsp;" style="text;html=1;align=center;verticalAlign=middle;resizable=0;points=[];autosize=1;strokeColor=none;fillColor=none;" parent="1" vertex="1">
          <mxGeometry x="100" y="4920" width="150" height="30" as="geometry" />
        </mxCell>
        <mxCell id="8zmKA1OA8kDZ-P2FFn2A-25" value="2 - Exec docker join swarm" style="text;html=1;align=center;verticalAlign=middle;resizable=0;points=[];autosize=1;strokeColor=none;fillColor=none;" parent="1" vertex="1">
          <mxGeometry x="100" y="4890" width="170" height="30" as="geometry" />
        </mxCell>
        <mxCell id="8zmKA1OA8kDZ-P2FFn2A-27" value="puppet-agent" style="shape=hexagon;perimeter=hexagonPerimeter2;whiteSpace=wrap;html=1;fixedSize=1;fillColor=#fff2cc;strokeColor=#d6b656;" parent="1" vertex="1">
          <mxGeometry x="-510" y="4810" width="100" height="40" as="geometry" />
        </mxCell>
        <mxCell id="8zmKA1OA8kDZ-P2FFn2A-28" value="puppet-agent" style="shape=hexagon;perimeter=hexagonPerimeter2;whiteSpace=wrap;html=1;fixedSize=1;fillColor=#fff2cc;strokeColor=#d6b656;" parent="1" vertex="1">
          <mxGeometry x="-175" y="4810" width="100" height="40" as="geometry" />
        </mxCell>
        <mxCell id="8zmKA1OA8kDZ-P2FFn2A-29" value="puppet-agent" style="shape=hexagon;perimeter=hexagonPerimeter2;whiteSpace=wrap;html=1;fixedSize=1;fillColor=#fff2cc;strokeColor=#d6b656;" parent="1" vertex="1">
          <mxGeometry x="125" y="4820" width="100" height="40" as="geometry" />
        </mxCell>
        <mxCell id="8zmKA1OA8kDZ-P2FFn2A-34" style="edgeStyle=orthogonalEdgeStyle;rounded=0;orthogonalLoop=1;jettySize=auto;html=1;entryX=0;entryY=0.5;entryDx=0;entryDy=0;" parent="1" source="8zmKA1OA8kDZ-P2FFn2A-31" target="8zmKA1OA8kDZ-P2FFn2A-2" edge="1">
          <mxGeometry relative="1" as="geometry" />
        </mxCell>
        <mxCell id="8zmKA1OA8kDZ-P2FFn2A-31" value="Git dev" style="shape=process;whiteSpace=wrap;html=1;backgroundOutline=1;fillColor=#d5e8d4;strokeColor=#82b366;" parent="1" vertex="1">
          <mxGeometry x="-675" y="4370" width="120" height="60" as="geometry" />
        </mxCell>
        <mxCell id="8zmKA1OA8kDZ-P2FFn2A-35" value="push webhook = trigger jenkins" style="text;html=1;align=center;verticalAlign=middle;resizable=0;points=[];autosize=1;strokeColor=none;fillColor=none;" parent="1" vertex="1">
          <mxGeometry x="-520" y="4400" width="190" height="30" as="geometry" />
        </mxCell>
        <mxCell id="8zmKA1OA8kDZ-P2FFn2A-37" value="&lt;h1&gt;Infra&lt;/h1&gt;" style="text;html=1;strokeColor=none;fillColor=none;spacing=5;spacingTop=-20;whiteSpace=wrap;overflow=hidden;rounded=0;" parent="1" vertex="1">
          <mxGeometry x="-630" y="4640" width="70" height="40" as="geometry" />
        </mxCell>
        <mxCell id="8zmKA1OA8kDZ-P2FFn2A-41" value="&lt;h1&gt;DEV&lt;/h1&gt;" style="text;html=1;strokeColor=none;fillColor=none;spacing=5;spacingTop=-20;whiteSpace=wrap;overflow=hidden;rounded=0;" parent="1" vertex="1">
          <mxGeometry x="190" y="4310" width="190" height="120" as="geometry" />
        </mxCell>
        <mxCell id="8zmKA1OA8kDZ-P2FFn2A-42" value="&lt;h1&gt;Ops&lt;/h1&gt;" style="text;html=1;strokeColor=none;fillColor=none;spacing=5;spacingTop=-20;whiteSpace=wrap;overflow=hidden;rounded=0;" parent="1" vertex="1">
          <mxGeometry x="-630" y="4680" width="60" height="40" as="geometry" />
        </mxCell>
        <mxCell id="GIzAJ8voG6iG_979vjGk-2" style="edgeStyle=orthogonalEdgeStyle;rounded=0;orthogonalLoop=1;jettySize=auto;html=1;" parent="1" source="GIzAJ8voG6iG_979vjGk-1" target="8zmKA1OA8kDZ-P2FFn2A-12" edge="1">
          <mxGeometry relative="1" as="geometry" />
        </mxCell>
        <mxCell id="GIzAJ8voG6iG_979vjGk-1" value="Git ops" style="shape=process;whiteSpace=wrap;html=1;backgroundOutline=1;fillColor=#d5e8d4;strokeColor=#82b366;" parent="1" vertex="1">
          <mxGeometry x="-660" y="4800" width="120" height="60" as="geometry" />
        </mxCell>
        <mxCell id="GIzAJ8voG6iG_979vjGk-5" value="manifest" style="text;html=1;align=center;verticalAlign=middle;resizable=0;points=[];autosize=1;strokeColor=#9673a6;fillColor=#e1d5e7;" parent="1" vertex="1">
          <mxGeometry x="-590" y="4980" width="70" height="30" as="geometry" />
        </mxCell>
        <mxCell id="GIzAJ8voG6iG_979vjGk-6" value="" style="endArrow=none;dashed=1;html=1;dashPattern=1 3;strokeWidth=2;rounded=0;" parent="1" edge="1">
          <mxGeometry width="50" height="50" relative="1" as="geometry">
            <mxPoint x="-830" y="4740" as="sourcePoint" />
            <mxPoint x="450" y="4730" as="targetPoint" />
          </mxGeometry>
        </mxCell>
        <mxCell id="GIzAJ8voG6iG_979vjGk-7" value="" style="endArrow=classic;startArrow=classic;html=1;rounded=0;" parent="1" edge="1">
          <mxGeometry width="50" height="50" relative="1" as="geometry">
            <mxPoint x="-830" y="4720" as="sourcePoint" />
            <mxPoint x="-830" y="4300" as="targetPoint" />
          </mxGeometry>
        </mxCell>
        <mxCell id="GIzAJ8voG6iG_979vjGk-8" value="local machine" style="text;html=1;align=center;verticalAlign=middle;resizable=0;points=[];autosize=1;strokeColor=none;fillColor=none;" parent="1" vertex="1">
          <mxGeometry x="-940" y="4450" width="100" height="30" as="geometry" />
        </mxCell>
        <mxCell id="GIzAJ8voG6iG_979vjGk-9" value="" style="endArrow=classic;startArrow=classic;html=1;rounded=0;" parent="1" edge="1">
          <mxGeometry width="50" height="50" relative="1" as="geometry">
            <mxPoint x="-830" y="5050" as="sourcePoint" />
            <mxPoint x="-830" y="4750.000000000001" as="targetPoint" />
          </mxGeometry>
        </mxCell>
        <mxCell id="GIzAJ8voG6iG_979vjGk-10" value="vagrant" style="text;html=1;align=center;verticalAlign=middle;resizable=0;points=[];autosize=1;strokeColor=none;fillColor=none;" parent="1" vertex="1">
          <mxGeometry x="-910" y="4870" width="60" height="30" as="geometry" />
        </mxCell>
        <mxCell id="GIzAJ8voG6iG_979vjGk-11" value="1 - Configurer le puppet master et les puppet agent" style="text;html=1;align=center;verticalAlign=middle;resizable=0;points=[];autosize=1;strokeColor=#d79b00;fillColor=#ffe6cc;" parent="1" vertex="1">
          <mxGeometry x="-640" y="5080" width="300" height="30" as="geometry" />
        </mxCell>
        <mxCell id="GIzAJ8voG6iG_979vjGk-12" value="2 - Creer un manifest pour installer docker" style="text;html=1;align=center;verticalAlign=middle;resizable=0;points=[];autosize=1;strokeColor=#d79b00;fillColor=#ffe6cc;" parent="1" vertex="1">
          <mxGeometry x="-640" y="5110" width="250" height="30" as="geometry" />
        </mxCell>
        <mxCell id="GIzAJ8voG6iG_979vjGk-13" value="3 - Init docker swarm" style="text;html=1;align=center;verticalAlign=middle;resizable=0;points=[];autosize=1;strokeColor=#d79b00;fillColor=#ffe6cc;" parent="1" vertex="1">
          <mxGeometry x="-640" y="5140" width="130" height="30" as="geometry" />
        </mxCell>
        <mxCell id="GIzAJ8voG6iG_979vjGk-14" value="4 - creer un manifest pour executer la commande join du swarm" style="text;html=1;align=center;verticalAlign=middle;resizable=0;points=[];autosize=1;strokeColor=#d79b00;fillColor=#ffe6cc;" parent="1" vertex="1">
          <mxGeometry x="-640" y="5170" width="360" height="30" as="geometry" />
        </mxCell>
        <mxCell id="GIzAJ8voG6iG_979vjGk-17" style="edgeStyle=orthogonalEdgeStyle;rounded=0;orthogonalLoop=1;jettySize=auto;html=1;entryX=1;entryY=0.5;entryDx=0;entryDy=0;" parent="1" source="GIzAJ8voG6iG_979vjGk-15" target="8zmKA1OA8kDZ-P2FFn2A-8" edge="1">
          <mxGeometry relative="1" as="geometry">
            <Array as="points">
              <mxPoint x="460" y="4560" />
            </Array>
          </mxGeometry>
        </mxCell>
        <mxCell id="GIzAJ8voG6iG_979vjGk-15" value="dockerhub" style="ellipse;shape=cloud;whiteSpace=wrap;html=1;" parent="1" vertex="1">
          <mxGeometry x="410" y="4385" width="120" height="80" as="geometry" />
        </mxCell>
        <mxCell id="GIzAJ8voG6iG_979vjGk-16" value="" style="shape=flexArrow;endArrow=classic;html=1;rounded=0;exitX=1;exitY=0;exitDx=0;exitDy=0;fillColor=#fff2cc;strokeColor=#d6b656;" parent="1" source="8zmKA1OA8kDZ-P2FFn2A-7" target="GIzAJ8voG6iG_979vjGk-15" edge="1">
          <mxGeometry width="50" height="50" relative="1" as="geometry">
            <mxPoint x="-250" y="4630" as="sourcePoint" />
            <mxPoint x="-200" y="4580" as="targetPoint" />
            <Array as="points">
              <mxPoint x="90" y="4420" />
            </Array>
          </mxGeometry>
        </mxCell>
        <mxCell id="GIzAJ8voG6iG_979vjGk-18" value="" style="rounded=1;whiteSpace=wrap;html=1;fillColor=#dae8fc;strokeColor=#6c8ebf;" parent="1" vertex="1">
          <mxGeometry x="-640" y="5720" width="280" height="450" as="geometry" />
        </mxCell>
        <mxCell id="GIzAJ8voG6iG_979vjGk-19" value="" style="rounded=1;whiteSpace=wrap;html=1;fillColor=#dae8fc;strokeColor=#6c8ebf;" parent="1" vertex="1">
          <mxGeometry x="-320" y="5720" width="280" height="450" as="geometry" />
        </mxCell>
        <mxCell id="GIzAJ8voG6iG_979vjGk-20" value="" style="rounded=1;whiteSpace=wrap;html=1;fillColor=#dae8fc;strokeColor=#6c8ebf;" parent="1" vertex="1">
          <mxGeometry y="5730" width="280" height="440" as="geometry" />
        </mxCell>
        <mxCell id="GIzAJ8voG6iG_979vjGk-23" value="&lt;h1&gt;machine virtuelle&lt;/h1&gt;" style="text;html=1;strokeColor=none;fillColor=none;spacing=5;spacingTop=-20;whiteSpace=wrap;overflow=hidden;rounded=0;" parent="1" vertex="1">
          <mxGeometry x="-795" y="5750" width="105" height="80" as="geometry" />
        </mxCell>
        <mxCell id="GIzAJ8voG6iG_979vjGk-24" value="puppet-agent" style="shape=process;whiteSpace=wrap;html=1;backgroundOutline=1;fillColor=#fff2cc;strokeColor=#d6b656;" parent="1" vertex="1">
          <mxGeometry x="-610" y="5840" width="120" height="60" as="geometry" />
        </mxCell>
        <mxCell id="GIzAJ8voG6iG_979vjGk-25" value="puppet-agent" style="shape=process;whiteSpace=wrap;html=1;backgroundOutline=1;fillColor=#fff2cc;strokeColor=#d6b656;" parent="1" vertex="1">
          <mxGeometry x="-295" y="5830" width="120" height="60" as="geometry" />
        </mxCell>
        <mxCell id="GIzAJ8voG6iG_979vjGk-26" value="puppet-agent" style="shape=process;whiteSpace=wrap;html=1;backgroundOutline=1;fillColor=#fff2cc;strokeColor=#d6b656;" parent="1" vertex="1">
          <mxGeometry x="20" y="5830" width="120" height="60" as="geometry" />
        </mxCell>
        <mxCell id="GIzAJ8voG6iG_979vjGk-27" value="&lt;h1&gt;&lt;font color=&quot;#999900&quot;&gt;Puppet agent&lt;/font&gt;&lt;/h1&gt;" style="text;html=1;strokeColor=none;fillColor=none;spacing=5;spacingTop=-20;whiteSpace=wrap;overflow=hidden;rounded=0;" parent="1" vertex="1">
          <mxGeometry x="-795" y="5840" width="105" height="80" as="geometry" />
        </mxCell>
        <mxCell id="GIzAJ8voG6iG_979vjGk-28" value="" style="shape=hexagon;perimeter=hexagonPerimeter2;whiteSpace=wrap;html=1;fixedSize=1;fillColor=#f8cecc;strokeColor=#b85450;" parent="1" vertex="1">
          <mxGeometry x="-620" y="5940" width="240" height="180" as="geometry" />
        </mxCell>
        <mxCell id="GIzAJ8voG6iG_979vjGk-29" value="" style="shape=hexagon;perimeter=hexagonPerimeter2;whiteSpace=wrap;html=1;fixedSize=1;fillColor=#f8cecc;strokeColor=#b85450;" parent="1" vertex="1">
          <mxGeometry x="-310" y="5940" width="250" height="180" as="geometry" />
        </mxCell>
        <mxCell id="GIzAJ8voG6iG_979vjGk-30" value="" style="shape=hexagon;perimeter=hexagonPerimeter2;whiteSpace=wrap;html=1;fixedSize=1;fillColor=#f8cecc;strokeColor=#b85450;" parent="1" vertex="1">
          <mxGeometry x="20" y="5930" width="250" height="190" as="geometry" />
        </mxCell>
        <mxCell id="GIzAJ8voG6iG_979vjGk-31" value="&lt;h1&gt;&lt;font color=&quot;#cc0066&quot;&gt;Docker engine&lt;/font&gt;&lt;/h1&gt;" style="text;html=1;strokeColor=none;fillColor=none;spacing=5;spacingTop=-20;whiteSpace=wrap;overflow=hidden;rounded=0;" parent="1" vertex="1">
          <mxGeometry x="-795" y="5980" width="105" height="80" as="geometry" />
        </mxCell>
        <mxCell id="GIzAJ8voG6iG_979vjGk-32" value="container" style="shape=cube;whiteSpace=wrap;html=1;boundedLbl=1;backgroundOutline=1;darkOpacity=0.05;darkOpacity2=0.1;fontColor=#CC0066;" parent="1" vertex="1">
          <mxGeometry x="-590" y="6030" width="120" height="80" as="geometry" />
        </mxCell>
        <mxCell id="GIzAJ8voG6iG_979vjGk-36" style="edgeStyle=orthogonalEdgeStyle;rounded=0;orthogonalLoop=1;jettySize=auto;html=1;entryX=0.5;entryY=0;entryDx=0;entryDy=0;fontColor=#CC0066;" parent="1" source="GIzAJ8voG6iG_979vjGk-35" target="GIzAJ8voG6iG_979vjGk-18" edge="1">
          <mxGeometry relative="1" as="geometry" />
        </mxCell>
        <mxCell id="GIzAJ8voG6iG_979vjGk-37" style="edgeStyle=orthogonalEdgeStyle;rounded=0;orthogonalLoop=1;jettySize=auto;html=1;fontColor=#CC0066;" parent="1" source="GIzAJ8voG6iG_979vjGk-35" target="GIzAJ8voG6iG_979vjGk-19" edge="1">
          <mxGeometry relative="1" as="geometry" />
        </mxCell>
        <mxCell id="GIzAJ8voG6iG_979vjGk-38" style="edgeStyle=orthogonalEdgeStyle;rounded=0;orthogonalLoop=1;jettySize=auto;html=1;fontColor=#CC0066;" parent="1" source="GIzAJ8voG6iG_979vjGk-35" target="GIzAJ8voG6iG_979vjGk-20" edge="1">
          <mxGeometry relative="1" as="geometry">
            <Array as="points">
              <mxPoint x="-248" y="5610" />
              <mxPoint x="140" y="5610" />
            </Array>
          </mxGeometry>
        </mxCell>
        <mxCell id="GIzAJ8voG6iG_979vjGk-35" value="SWARM" style="rhombus;whiteSpace=wrap;html=1;fillColor=#f8cecc;strokeColor=#b85450;" parent="1" vertex="1">
          <mxGeometry x="-370" y="5310" width="245" height="190" as="geometry" />
        </mxCell>
        <mxCell id="GIzAJ8voG6iG_979vjGk-39" value="services = 1 ou plusieurs container&amp;nbsp;" style="shape=parallelogram;perimeter=parallelogramPerimeter;whiteSpace=wrap;html=1;fixedSize=1;fontColor=#CC0066;" parent="1" vertex="1">
          <mxGeometry x="-105" y="5390" width="285" height="110" as="geometry" />
        </mxCell>
        <mxCell id="GIzAJ8voG6iG_979vjGk-41" style="edgeStyle=orthogonalEdgeStyle;rounded=0;orthogonalLoop=1;jettySize=auto;html=1;entryX=-0.004;entryY=0.355;entryDx=0;entryDy=0;entryPerimeter=0;fontColor=#999900;" parent="1" source="GIzAJ8voG6iG_979vjGk-40" target="GIzAJ8voG6iG_979vjGk-18" edge="1">
          <mxGeometry relative="1" as="geometry" />
        </mxCell>
        <mxCell id="GIzAJ8voG6iG_979vjGk-40" value="&lt;font color=&quot;#999900&quot;&gt;puppet sever&lt;/font&gt;" style="shape=step;perimeter=stepPerimeter;whiteSpace=wrap;html=1;fixedSize=1;fontColor=#CC0066;" parent="1" vertex="1">
          <mxGeometry x="-1070" y="5785" width="150" height="190" as="geometry" />
        </mxCell>
        <mxCell id="r_yt_o6jSHFFbGIUI1c5-7" style="edgeStyle=orthogonalEdgeStyle;rounded=0;orthogonalLoop=1;jettySize=auto;html=1;entryX=0;entryY=0.75;entryDx=0;entryDy=0;" edge="1" parent="1">
          <mxGeometry relative="1" as="geometry">
            <mxPoint x="-320.00000000000045" y="4857" as="sourcePoint" />
            <mxPoint x="480" y="5133.5" as="targetPoint" />
            <Array as="points">
              <mxPoint x="-320" y="5137" />
              <mxPoint x="490" y="5137" />
              <mxPoint x="490" y="5133" />
            </Array>
          </mxGeometry>
        </mxCell>
        <mxCell id="r_yt_o6jSHFFbGIUI1c5-2" value="promethues agent" style="shape=cube;whiteSpace=wrap;html=1;boundedLbl=1;backgroundOutline=1;darkOpacity=0.05;darkOpacity2=0.1;" vertex="1" parent="1">
          <mxGeometry x="-360" y="4820" width="80" height="40" as="geometry" />
        </mxCell>
        <mxCell id="r_yt_o6jSHFFbGIUI1c5-6" style="edgeStyle=orthogonalEdgeStyle;rounded=0;orthogonalLoop=1;jettySize=auto;html=1;entryX=0;entryY=0.5;entryDx=0;entryDy=0;" edge="1" parent="1" source="r_yt_o6jSHFFbGIUI1c5-3" target="r_yt_o6jSHFFbGIUI1c5-4">
          <mxGeometry relative="1" as="geometry">
            <Array as="points">
              <mxPoint x="-225" y="5080" />
              <mxPoint x="410" y="5080" />
            </Array>
          </mxGeometry>
        </mxCell>
        <mxCell id="r_yt_o6jSHFFbGIUI1c5-3" value="promethues agent" style="shape=cube;whiteSpace=wrap;html=1;boundedLbl=1;backgroundOutline=1;darkOpacity=0.05;darkOpacity2=0.1;" vertex="1" parent="1">
          <mxGeometry x="-265" y="4825" width="80" height="40" as="geometry" />
        </mxCell>
        <mxCell id="r_yt_o6jSHFFbGIUI1c5-11" style="edgeStyle=orthogonalEdgeStyle;rounded=0;orthogonalLoop=1;jettySize=auto;html=1;entryX=0.5;entryY=1;entryDx=0;entryDy=0;" edge="1" parent="1" source="r_yt_o6jSHFFbGIUI1c5-4" target="r_yt_o6jSHFFbGIUI1c5-10">
          <mxGeometry relative="1" as="geometry" />
        </mxCell>
        <mxCell id="r_yt_o6jSHFFbGIUI1c5-4" value="prometheus" style="shape=internalStorage;whiteSpace=wrap;html=1;backgroundOutline=1;" vertex="1" parent="1">
          <mxGeometry x="485" y="4964" width="230" height="230" as="geometry" />
        </mxCell>
        <mxCell id="r_yt_o6jSHFFbGIUI1c5-8" value="cpu / ram" style="text;html=1;align=center;verticalAlign=middle;resizable=0;points=[];autosize=1;strokeColor=none;fillColor=none;" vertex="1" parent="1">
          <mxGeometry x="360" y="5040" width="70" height="30" as="geometry" />
        </mxCell>
        <mxCell id="r_yt_o6jSHFFbGIUI1c5-9" value="90% ram" style="text;html=1;align=center;verticalAlign=middle;resizable=0;points=[];autosize=1;strokeColor=none;fillColor=none;" vertex="1" parent="1">
          <mxGeometry x="365" y="4965" width="70" height="30" as="geometry" />
        </mxCell>
        <mxCell id="r_yt_o6jSHFFbGIUI1c5-13" style="edgeStyle=orthogonalEdgeStyle;rounded=0;orthogonalLoop=1;jettySize=auto;html=1;" edge="1" parent="1" source="r_yt_o6jSHFFbGIUI1c5-10">
          <mxGeometry relative="1" as="geometry">
            <mxPoint x="600" y="4470" as="targetPoint" />
          </mxGeometry>
        </mxCell>
        <mxCell id="r_yt_o6jSHFFbGIUI1c5-10" value="jenkins" style="shape=hexagon;perimeter=hexagonPerimeter2;whiteSpace=wrap;html=1;fixedSize=1;" vertex="1" parent="1">
          <mxGeometry x="540" y="4760" width="120" height="80" as="geometry" />
        </mxCell>
        <mxCell id="r_yt_o6jSHFFbGIUI1c5-14" style="edgeStyle=orthogonalEdgeStyle;rounded=0;orthogonalLoop=1;jettySize=auto;html=1;" edge="1" parent="1" source="r_yt_o6jSHFFbGIUI1c5-12">
          <mxGeometry relative="1" as="geometry">
            <mxPoint x="600" y="4700" as="targetPoint" />
          </mxGeometry>
        </mxCell>
        <mxCell id="r_yt_o6jSHFFbGIUI1c5-12" value="git terraform" style="rhombus;whiteSpace=wrap;html=1;" vertex="1" parent="1">
          <mxGeometry x="705" y="4630" width="130" height="140" as="geometry" />
        </mxCell>
        <mxCell id="r_yt_o6jSHFFbGIUI1c5-16" style="edgeStyle=orthogonalEdgeStyle;rounded=0;orthogonalLoop=1;jettySize=auto;html=1;entryX=1;entryY=0.5;entryDx=0;entryDy=0;" edge="1" parent="1" source="r_yt_o6jSHFFbGIUI1c5-15" target="8zmKA1OA8kDZ-P2FFn2A-22">
          <mxGeometry relative="1" as="geometry">
            <Array as="points">
              <mxPoint x="510" y="4550" />
              <mxPoint x="510" y="4800" />
            </Array>
          </mxGeometry>
        </mxCell>
        <mxCell id="r_yt_o6jSHFFbGIUI1c5-15" value="puisance = 2" style="rhombus;whiteSpace=wrap;html=1;" vertex="1" parent="1">
          <mxGeometry x="700" y="4480" width="140" height="140" as="geometry" />
        </mxCell>
        <mxCell id="r_yt_o6jSHFFbGIUI1c5-17" value="40% ram" style="text;html=1;align=center;verticalAlign=middle;resizable=0;points=[];autosize=1;strokeColor=none;fillColor=none;" vertex="1" parent="1">
          <mxGeometry x="365" y="5010" width="70" height="30" as="geometry" />
        </mxCell>
        <mxCell id="r_yt_o6jSHFFbGIUI1c5-27" value="&lt;h1 style=&quot;font-size: 28px;&quot;&gt;&lt;font style=&quot;font-size: 28px;&quot;&gt;- Deploiement&lt;/font&gt;&lt;/h1&gt;&lt;h1 style=&quot;font-size: 28px;&quot;&gt;&amp;nbsp; &amp;nbsp; canary&lt;/h1&gt;&lt;div style=&quot;font-size: 28px;&quot;&gt;&lt;font style=&quot;font-size: 28px;&quot;&gt;&amp;nbsp; &amp;nbsp; blue/green&lt;br&gt;&lt;/font&gt;&lt;/div&gt;&lt;div style=&quot;font-size: 28px;&quot;&gt;&lt;font style=&quot;font-size: 28px;&quot;&gt;- Therome Persistent&lt;/font&gt;&lt;/div&gt;&lt;div style=&quot;font-size: 28px;&quot;&gt;&lt;font style=&quot;font-size: 28px;&quot;&gt;&amp;nbsp; &amp;nbsp; &amp;nbsp;ACID&amp;nbsp;&lt;/font&gt;&lt;/div&gt;&lt;div style=&quot;font-size: 28px;&quot;&gt;&lt;font style=&quot;font-size: 28px;&quot;&gt;&amp;nbsp; &amp;nbsp; &amp;nbsp;CAP&amp;nbsp;&lt;/font&gt;&lt;/div&gt;&lt;div style=&quot;font-size: 28px;&quot;&gt;&lt;font style=&quot;font-size: 28px;&quot;&gt;- Load Balancing&lt;/font&gt;&lt;/div&gt;&lt;div style=&quot;font-size: 28px;&quot;&gt;&lt;font style=&quot;font-size: 28px;&quot;&gt;&amp;nbsp; roundroubing&lt;/font&gt;&lt;/div&gt;&lt;div style=&quot;font-size: 28px;&quot;&gt;&lt;span style=&quot;background-color: initial;&quot;&gt;- Haute dispo&lt;/span&gt;&lt;br&gt;&lt;/div&gt;&lt;div style=&quot;font-size: 28px;&quot;&gt;- Fault tolerant&lt;/div&gt;&lt;div style=&quot;font-size: 28px;&quot;&gt;&lt;br&gt;&lt;/div&gt;&lt;div style=&quot;font-size: 28px;&quot;&gt;- CPU Burst&lt;br&gt;&lt;/div&gt;&lt;div style=&quot;font-size: 28px;&quot;&gt;&lt;div&gt;- Consenus&lt;/div&gt;&lt;div&gt;&amp;nbsp; &amp;nbsp;Raft&lt;/div&gt;&lt;/div&gt;&lt;div style=&quot;font-size: 28px;&quot;&gt;&lt;font style=&quot;font-size: 28px;&quot;&gt;&amp;nbsp;&amp;nbsp;&lt;/font&gt;&lt;/div&gt;&lt;div style=&quot;font-size: 28px;&quot;&gt;&lt;font style=&quot;font-size: 28px;&quot;&gt;&lt;br&gt;&lt;/font&gt;&lt;/div&gt;&lt;div style=&quot;font-size: 28px;&quot;&gt;&lt;font style=&quot;font-size: 28px;&quot;&gt;&amp;nbsp; &amp;nbsp; &amp;nbsp;&lt;/font&gt;&lt;/div&gt;" style="text;html=1;strokeColor=none;fillColor=none;spacing=5;spacingTop=-20;whiteSpace=wrap;overflow=hidden;rounded=0;" vertex="1" parent="1">
          <mxGeometry x="-760" y="6280" width="400" height="520" as="geometry" />
        </mxCell>
      </root>
    </mxGraphModel>
  </diagram>
</mxfile>
